{
    "type":"database",
    "columns":[],
    "key": "",
    "user": "root",
    "password": "root",
    "host":"localhost",
    "database": "visokoskolska_ustanova",
    "tables":[
        {
            "table_name":"studenti",
            "key":"broj_indeksa",
            "columns":["broj_indeksa", "struka", "ustanova", "prezime", "ime_roditelja", "ime", "pol", "adresa_stanovanja", "telefon", "jmbg", "datum_rodjenja"],
            "insert_procedure": "studenti_insert",
            "delete_procedure": "studenti_delete",
            "update_procedure": "studenti_edit",
            "read_procedure": "studenti_get_all",
            "search_procedure": "studenti_search"
        },

        {
            "table_name": "nivo_studija",
            "key": "oznaka",
            "columns":["oznaka", "naziv"],
            "insert_procedure": "nivo_studija_insert",
            "delete_procedure": "nivo_studija_delete",
            "update_procedure": "nivo_studija_edit",
            "read_procedure": "nivo_studija_get_all",
            "search_procedure": "nivo_studija_search"
        },

        {
            "table_name": "studijski_programi",
            "key": "oznaka_programa",
            "columns": ["oznaka_programa", "ustanova", "nivo", "naziv_programa"],
            "insert_procedure": "studijski_programi_insert",
            "delete_procedure": "studijski_programi_delete",
            "update_procedure": "studijski_programi_edit",
            "read_procedure": "studijski_programi_get_all",
            "search_procedure": "studijski_programi_search"
        },

        {
            "table_name": "plan_studijske_grupe",
            "key": "oznaka_programa",
            "columns": ["oznaka_programa", "program_ustanove", "blok", "pozicija", "ustanova", "oznaka_predmeta"],
            "insert_procedure": "plan_studijske_grupe_insert",
            "delete_procedure": "plan_studijske_grupe_delete",
            "update_procedure": "plan_studijske_grupe_edit",
            "read_procedure": "plan_studijske_grupe_get_all",
            "search_procedure": "plan_studijske_grupe_search"
        },

        {
            "table_name": "nastavni_predmet",
            "key": "oznaka",
            "columns": ["oznaka", "ustanova", "naziv", "espb"],
            "insert_procedure": "nastavni_predmet_insert",
            "delete_procedure": "nastavni_predmet_delete",
            "update_procedure": "nastavni_predmet_edit",
            "read_procedure": "nastavni_predmet_get_all",
            "search_procedure": "nastavni_predmet_search"
        },

        {
            "table_name": "tok_studija",
            "key": "broj_indeksa",
            "columns":["broj_indeksa", "ustanova", "oznaka_programa", "student_iz_ustanove", "struka", "skolska_godina", "godina_studija", "blok", "redni_broj_upisa", "datum_upisa", "datum_overe", "espb_pocetni", "espb krajnji"],
            "insert_procedure": "tok_studija_insert",
            "delete_procedure": "tok_studija_delete",
            "update_procedure": "tok_studija_edit",
            "read_procedure": "tok_studija_get_all",
            "search_procedure": "tok_studija_search"
        },

        {
            "table_name": "visokoskolska_ustanova",
            "key": "oznaka",
            "columns":["oznaka", "naziv", "adresa"],
            "insert_procedure": "visokoskolska_ustanova_insert",
            "delete_procedure": "visokoskolska_ustanova_delete",
            "update_procedure": "visokoskolska_ustanova_edit",
            "read_procedure": "visokoskolska_ustanova_get_all",
            "search_procedure": "visokoskolska_ustanova_search"
        }
    ]
}